; Engine configuration file.
; It's best edited using the editor UI and not directly,
; since the parameters that go here are not all obvious.
;
; Format:
;   [section] ; section goes between []
;   param=value ; assign values to parameters

config_version=4

_global_script_classes=[  ]
_global_script_class_icons={

}

[application]

config/name="LD46"
run/main_scene="res://levels/Main.tscn"
config/icon="res://Assets/icone/ambulance sticker.png"
config/windows_native_icon="res://Assets/icone/ambulance sticker.ico"

[audio]

default_bus_layout="res://audiobuslayout.tres"

[autoload]

Utils="*res://levels/Utils.gd"

[display]

window/size/width=1920
window/size/height=1080
window/stretch/mode="2d"
window/stretch/aspect="keep"

[importer_defaults]

texture={
"compress/bptc_ldr": 0,
"compress/hdr_mode": 0,
"compress/lossy_quality": 1.0,
"compress/mode": 1,
"compress/normal_map": 2,
"detect_3d": false,
"flags/anisotropic": false,
"flags/filter": true,
"flags/mipmaps": false,
"flags/repeat": 0,
"flags/srgb": 2,
"process/HDR_as_SRGB": false,
"process/fix_alpha_border": true,
"process/invert_color": false,
"process/premult_alpha": false,
"size_limit": 0,
"stream": false,
"svg/scale": 1.0
}
wav={
"compress/mode": 1,
"edit/loop": false,
"edit/normalize": false,
"edit/trim": false,
"force/8_bit": false,
"force/max_rate": false,
"force/max_rate_hz": 44100,
"force/mono": false
}

[rendering]

quality/intended_usage/framebuffer_allocation=0
quality/intended_usage/framebuffer_allocation.mobile=0
environment/default_clear_color=Color( 0.745098, 0.588235, 0.588235, 1 )
